[
  {
    "name": "Zweiter Bildschirm",
    "ol": "1920 45",
    "ur": "3199 1068"
  },
  {
    "name": "Erster Bildschirm",
    "ol": "0 0",
    "ur": "1919 1079"
  },
  {
    "name": "Teams",
    "ol": "162 49",
    "ur": "1757 944"
  }
]